{
    "@class": "com.kony.gen.viz.model.component.KVizImage2",
    "DNDConfig": null,
    "__parentReadjusting__": false,
    "_base64_": null,
    "_height_": {
        "type": "string",
        "value": "30dp"
    },
    "_margin_": [
        0,
        0,
        0,
        0
    ],
    "_padding_": [
        0,
        0,
        0,
        0
    ],
    "_skin_": "sf41c054ddd949cc98737e8ad6da5b60",
    "_src_": "call.png",
    "_width_": {
        "type": "string",
        "value": "30dp"
    },
    "canUpdateUI": true,
    "centerx": {
        "type": "string",
        "value": "50%"
    },
    "centery": {
        "type": "string",
        "value": "50%"
    },
    "containerweight": 100,
    "context": {
        "channel": "mobile",
        "formID": "CompletedVisit",
        "platform": "android",
        "tabpaneID": "",
        "templateType": "forms",
        "topLevelBox": null
    },
    "id": "imgPhoneIcon",
    "imagescalemode": 1,
    "info": null,
    "invokedProperty": "src",
    "isvisible": true,
    "kuid": "79f4b2a5454145f3abe7814036860cc6",
    "name": "kony.ui.Image2",
    "parent": "flxPhoneLeftContainer",
    "pf": "CompletedVisit",
    "srcType": 1,
    "tabpaneId": "tabCompletedCustomerDetails",
    "wType": "Image",
    "widgetalignment": 5
}