{
    "@class": "com.kony.gen.viz.model.component.KVizListBox",
    "DNDConfig": null,
    "__parentReadjusting__": false,
    "_height_": {
        "type": "string",
        "value": "30dp"
    },
    "_left_": {
        "type": "string",
        "value": "71%"
    },
    "_margin_": [
        0,
        0,
        0,
        0
    ],
    "_padding_": [
        0,
        0,
        0,
        0
    ],
    "_skin_": "sdcf340ae9c54a6eb35d432193a7234c",
    "_top_": {
        "type": "string",
        "value": "35dp"
    },
    "_width_": {
        "type": "string",
        "value": "26%"
    },
    "canUpdateUI": true,
    "containerweight": 100,
    "contentalignment": 4,
    "context": {
        "channel": "mobile",
        "formID": "CompletedVisit",
        "platform": "android",
        "tabpaneID": "",
        "templateType": "forms",
        "topLevelBox": null
    },
    "groupcells": false,
    "id": "quatityCmb1",
    "info": null,
    "isvisible": true,
    "kuid": "a22588d9f2de4ce986ad77354127af0a",
    "masterdata": [],
    "name": "kony.ui.ListBox",
    "parent": "flxCompletedPreparationsContainer",
    "pf": "CompletedVisit",
    "selectedkeys": null,
    "selectedkeyvalue": null,
    "selectedkeyvalues": null,
    "size": 18,
    "tabpaneId": "tabCompletedCustomerDetails",
    "viewconfig": {
        "toggleViewConfig": {
            "viewStyle": 0
        }
    },
    "viewtype": 0,
    "wType": "ListBox",
    "zindex": 1
}