{
    "DNDConfig": null,
    "_enabled_": false,
    "_height_": {
        "type": "string",
        "value": "230dp"
    },
    "_image_": null,
    "_margin_": [
        0,
        0,
        0,
        0
    ],
    "_orientation_": 6,
    "_padding_": [
        0,
        0,
        0,
        0
    ],
    "_percent_": true,
    "_position_": 3,
    "_render_": true,
    "_skin_": "sa3f141ae98643aab1997a245a9e348f",
    "_width_": {
        "type": "string",
        "value": "100%"
    },
    "allboxes": [],
    "canUpdateUI": true,
    "children": [
        "flxCompletedServiceCovers"
    ],
    "clipbounds": true,
    "containerweight": 93,
    "enableScrolling": true,
    "enabled": false,
    "enablescrolling": true,
    "id": "tabCompletedServiceCovers",
    "info": null,
    "isvisible": true,
    "kuid": "d04256172da64db69ccc524e37bba138",
    "layouttype": 2,
    "marginLocked": false,
    "margininpixel": false,
    "name": "kony.ui.Tab",
    "oninit": null,
    "paddinginpixel": false,
    "parent": "tabCompletedCustomerDetails",
    "pf": "CompletedVisit",
    "scrollDirection": 1,
    "scrolldirection": 1,
    "snapgridsize": "10",
    "snaptogrid": true,
    "tabname": "  Service Covers",
    "tabpaneId": "tabCompletedCustomerDetails",
    "wType": "Tab"
}