{
    "DNDConfig": null,
    "_enabled_": false,
    "_height_": {
        "type": "string",
        "value": "170dp"
    },
    "_margin_": [
        0,
        0,
        0,
        0
    ],
    "_orientation_": 6,
    "_padding_": [
        0,
        0,
        0,
        0
    ],
    "_percent_": true,
    "_position_": 3,
    "_render_": true,
    "_skin_": "sa3f141ae98643aab1997a245a9e348f",
    "_width_": {
        "type": "string",
        "value": "100%"
    },
    "allboxes": [],
    "canUpdateUI": true,
    "children": [
        "flxCompletedServiceNotes"
    ],
    "clipbounds": true,
    "containerweight": 100,
    "enableScrolling": true,
    "enabled": false,
    "enablescrolling": true,
    "id": "tabCompletedServiceNotes",
    "info": null,
    "isvisible": true,
    "kuid": "36f5c66af5894f8f844dd933266ba6ba",
    "layouttype": 2,
    "margininpixel": false,
    "name": "kony.ui.Tab",
    "oninit": null,
    "paddinginpixel": false,
    "parent": "tabCompletedCustomerDetails",
    "pf": "CompletedVisit",
    "scrollDirection": 1,
    "scrolldirection": 1,
    "snapgridsize": 10,
    "snaptogrid": true,
    "tabname": "  Service Notes",
    "tabpaneId": "tabCompletedCustomerDetails",
    "wType": "Tab"
}