{
    "@class": "com.kony.gen.viz.model.component.KVizButton",
    "DNDConfig": null,
    "__parentReadjusting__": false,
    "_height_": {
        "type": "string",
        "value": "40dp"
    },
    "_left_": {
        "type": "string",
        "value": "13dp"
    },
    "_margin_": [
        6,
        6,
        6,
        6
    ],
    "_padding_": [
        0,
        0,
        0,
        0
    ],
    "_skin_": "s8e2c7d415ec4249843ec975d0ac528a",
    "_text_": "Button",
    "_top_": {
        "type": "string",
        "value": "7dp"
    },
    "_width_": {
        "type": "string",
        "value": "120dp"
    },
    "canUpdateUI": true,
    "centerx": {
        "type": "string",
        "value": "78%"
    },
    "centery": {
        "type": "string",
        "value": "50%"
    },
    "containerweight": 100,
    "contentalignment": 5,
    "displaytext": true,
    "focusskin": "s8e2c7d415ec4249843ec975d0ac528a",
    "id": "btnConfirm",
    "ide_onClick": "AS_Button_5291ce94cd984252aeb3ff9acc44ac81",
    "info": null,
    "isvisible": true,
    "kuid": "d471107edcf844f5b0b8672fd8018404",
    "name": "kony.ui.Button",
    "parent": "flxBottomView",
    "pf": "Customer",
    "texti18n": "common.label.confirm",
    "wType": "Button"
}