{
    "DNDConfig": null,
    "__parentReadjusting__": false,
    "_height_": {
        "type": "string",
        "value": "30dp"
    },
    "_left_": {
        "type": "string",
        "value": "0.00%"
    },
    "_margin_": [
        0,
        0,
        0,
        0
    ],
    "_orientation_": 6,
    "_padding_": [
        0,
        0,
        0,
        0
    ],
    "_percent_": true,
    "_right_": {
        "type": "string",
        "value": "2%"
    },
    "_skin_": "s18906e36ee14c9aabc1d20002fc503f",
    "_top_": {
        "type": "string",
        "value": "-0.17%"
    },
    "_width_": {
        "type": "string",
        "value": "100%"
    },
    "allboxes": [],
    "autogrowmode": 0,
    "canUpdateUI": true,
    "children": [
        "lblTop"
    ],
    "clipbounds": true,
    "containerId": true,
    "containerweight": 100,
    "enablescrolling": true,
    "id": "flxSegCommonSingleRow",
    "info": null,
    "isTemplate": true,
    "isvisible": true,
    "kuid": "e47f674cc19f43deadc1653a0f403a1b",
    "layouttype": 2,
    "name": "kony.ui.FlexContainer",
    "parent": "tplSegCommonSingleRow",
    "pf": "tplSegCommonSingleRow",
    "snapgridsize": 10,
    "snaptogrid": true,
    "wType": "FlexContainer",
    "widgetalignment": 1,
    "zindex": 10
}