{
    "@class": "com.kony.gen.viz.model.container.KVizForm",
    "DNDConfig": null,
    "_margin_": [
        0,
        0,
        0,
        0
    ],
    "_orientation_": 1,
    "_padding_": [
        0,
        0,
        0,
        0
    ],
    "_percent_": true,
    "_skin_": "s095293a3cd74a6199e09cdea5e64216",
    "_title_": null,
    "addWidgetsdone": false,
    "allboxes": [],
    "canUpdateUI": true,
    "children": [
        "hbxHeaderContainer",
        "hbxStartDayContainer",
        "hbxEndDayContainer"
    ],
    "containerweight": 80,
    "currentLocale": "es_ES",
    "desktopweb": {
        "psp": {
            "titleBarConfig": {
                "closeIcon": "close.png",
                "maxIcon": "max.png",
                "minIcon": "min.png"
            }
        }
    },
    "device": "GalaxyS5",
    "displayorientation": 3,
    "enabledforidletimeout": false,
    "id": "PopupStartDay",
    "info": null,
    "initdone": false,
    "inputaccessoryviewtype": 4,
    "ismodal": false,
    "isvisible": true,
    "kuid": "7ff67e4b15a8492bb6e2a27affe17438",
    "name": "kony.ui.Popup",
    "paddinginpixel": false,
    "platform": "android",
    "prevDevice": "iPhone6",
    "prevPlatform": "iphone",
    "retainscrollposition": false,
    "shellCSS": "and_GalaxyS5",
    "titlebar": true,
    "transparencybehindthepopup": 60,
    "wType": "Popup"
}