{
  "android": {
    "font_size": 110,
    "isForked": false
  },
  "background_color": "ef505bff",
  "bg_type": "one",
  "border_color": "ffffffff",
  "border_radius": 4,
  "border_style": "custom",
  "border_type": 0,
  "border_width": 1,
  "desktopweb": {
    "font_size": 110,
    "isForked": false
  },
  "font_color": "ffffffff",
  "font_name": "Arial",
  "font_size": 110,
  "font_style": "normal",
  "font_weight": "normal",
  "ipad": {
    "font_size": 110,
    "isForked": false
  },
  "iphone": {
    "font_size": 110,
    "isForked": false
  },
  "isDefaultSkin": false,
  "kiosk": {
    "font_size": 110,
    "isForked": false
  },
  "kuid": "s2446b86b9f943d1a5d00669b68d9dfa",
  "spaan": {
    "font_size": 110,
    "isForked": false
  },
  "spaandroidtablet": {
    "font_size": 110,
    "isForked": false
  },
  "spabb": {
    "font_size": 110,
    "isForked": false
  },
  "spaip": {
    "font_size": 110,
    "isForked": false
  },
  "spaipad": {
    "font_size": 110,
    "isForked": false
  },
  "spawindowstablet": {
    "font_size": 110,
    "isForked": false
  },
  "spawinphone8": {
    "font_size": 110,
    "isForked": false
  },
  "tabrcandroid": {
    "font_size": 110,
    "isForked": false
  },
  "wType": "TabPane",
  "watchos": {
    "font_size": 110,
    "isForked": false
  },
  "windows8": {
    "font_size": 110,
    "isForked": false
  },
  "winphone8": {
    "font_size": 110,
    "isForked": false
  }
}