{
  "background_color": "46b12dff",
  "bg_type": "one",
  "border_color": "000000ff",
  "border_style": "plain",
  "border_type": 0,
  "border_width": 0,
  "isDefaultSkin": false,
  "kuid": "s75947bf46584c748585ffefabdce19d",
  "wType": "FlexContainer"
}