{
  "background_color": "000000b2",
  "bg_type": "one",
  "border_color": "000000ff",
  "border_style": "plain",
  "border_type": 0,
  "border_width": 0,
  "isDefaultSkin": false,
  "kuid": "sd20d451070244de91646848fae5036f",
  "wType": "FlexContainer"
}