{
    "android": {
        "background_color": "ffffffff",
        "bg_type": "one",
        "border_color": "000000ff",
        "border_radius": 4,
        "border_style": "custom",
        "border_type": 0,
        "border_width": 1,
        "font_color": "ffffffff",
        "font_name": "Arial",
        "font_size": 248,
        "font_style": "normal",
        "font_weight": "normal",
        "isForked": true,
        "wType": "Tab"
    },
    "background_color": "ffffffff",
    "bg_type": "one",
    "border_color": "000000ff",
    "border_style": "plain",
    "border_type": 0,
    "border_width": 0,
    "delinkedPltfrms": {
        "desktop": [],
        "mobile": [],
        "tablet": []
    },
    "desktopweb": {
        "background_color": "ffffffff",
        "bg_type": "one",
        "border_type": 0,
        "bottom_left_border_color": "000000ff",
        "bottom_left_border_style": "plain",
        "bottom_left_border_width": 0,
        "bottom_right_border_color": "000000ff",
        "bottom_right_border_style": "plain",
        "bottom_right_border_width": 0,
        "font_color": "ffffffff",
        "font_name": "Arial",
        "font_size": 248,
        "font_style": "normal",
        "font_weight": "normal",
        "isForked": true,
        "shadow": {
            "br": 5,
            "color": "000000",
            "inner": false,
            "nm": 0,
            "x": 0,
            "y": 2
        },
        "top_left_border_color": "000000ff",
        "top_left_border_style": "plain",
        "top_left_border_width": 0,
        "top_right_border_color": "000000ff",
        "top_right_border_style": "plain",
        "top_right_border_width": 0,
        "wType": "Tab"
    },
    "ipad": {
        "background_color": "ffffffff",
        "bg_type": "one",
        "border_color": "000000ff",
        "border_radius": 4,
        "border_style": "custom",
        "border_type": 0,
        "border_width": 1,
        "font_color": "ffffffff",
        "font_name": "Arial",
        "font_size": 248,
        "isForked": true,
        "shadow": {
            "br": 5,
            "color": "000000",
            "inner": false,
            "nm": 0,
            "x": 0,
            "y": 2
        },
        "wType": "Tab"
    },
    "iphone": {
        "background_color": "ffffffff",
        "bg_type": "one",
        "border_color": "000000ff",
        "border_radius": 4,
        "border_style": "custom",
        "border_type": 0,
        "border_width": 1,
        "font_color": "ffffffff",
        "font_name": "Arial",
        "font_size": 248,
        "isForked": true,
        "shadow": {
            "br": 5,
            "color": "000000",
            "inner": false,
            "nm": 0,
            "x": 0,
            "y": 2
        },
        "wType": "Tab"
    },
    "isDefaultSkin": false,
    "kiosk": {
        "background_color": "ffffffff",
        "bg_type": "one",
        "border_color": "000000ff",
        "border_radius": 4,
        "border_style": "custom",
        "border_type": 0,
        "border_width": 1,
        "font_color": "ffffffff",
        "font_name": "Arial",
        "font_size": 248,
        "font_style": "normal",
        "font_weight": "normal",
        "isForked": true,
        "wType": "Tab"
    },
    "kuid": "s29c6dd303114bcaa2db36ac0a043c35",
    "spaan": {
        "background_color": "ffffffff",
        "bg_type": "one",
        "border_type": 0,
        "bottom_left_border_color": "000000ff",
        "bottom_left_border_style": "plain",
        "bottom_left_border_width": 0,
        "bottom_right_border_color": "000000ff",
        "bottom_right_border_style": "plain",
        "bottom_right_border_width": 0,
        "font_color": "ffffffff",
        "font_name": "Arial",
        "font_size": 248,
        "font_style": "normal",
        "font_weight": "normal",
        "isForked": true,
        "shadow": {
            "br": 5,
            "color": "000000",
            "inner": false,
            "nm": 0,
            "x": 0,
            "y": 2
        },
        "top_left_border_color": "000000ff",
        "top_left_border_style": "plain",
        "top_left_border_width": 0,
        "top_right_border_color": "000000ff",
        "top_right_border_style": "plain",
        "top_right_border_width": 0,
        "wType": "Tab"
    },
    "spaandroidtablet": {
        "background_color": "ffffffff",
        "bg_type": "one",
        "border_type": 0,
        "bottom_left_border_color": "000000ff",
        "bottom_left_border_style": "plain",
        "bottom_left_border_width": 0,
        "bottom_right_border_color": "000000ff",
        "bottom_right_border_style": "plain",
        "bottom_right_border_width": 0,
        "font_color": "ffffffff",
        "font_name": "Arial",
        "font_size": 248,
        "font_style": "normal",
        "font_weight": "normal",
        "isForked": true,
        "shadow": {
            "br": 5,
            "color": "000000",
            "inner": false,
            "nm": 0,
            "x": 0,
            "y": 2
        },
        "top_left_border_color": "000000ff",
        "top_left_border_style": "plain",
        "top_left_border_width": 0,
        "top_right_border_color": "000000ff",
        "top_right_border_style": "plain",
        "top_right_border_width": 0,
        "wType": "Tab"
    },
    "spabb": {
        "background_color": "ffffffff",
        "bg_type": "one",
        "border_type": 0,
        "bottom_left_border_color": "000000ff",
        "bottom_left_border_style": "plain",
        "bottom_left_border_width": 0,
        "bottom_right_border_color": "000000ff",
        "bottom_right_border_style": "plain",
        "bottom_right_border_width": 0,
        "font_color": "ffffffff",
        "font_name": "Arial",
        "font_size": 248,
        "font_style": "normal",
        "font_weight": "normal",
        "isForked": true,
        "shadow": {
            "br": 5,
            "color": "000000",
            "inner": false,
            "nm": 0,
            "x": 0,
            "y": 2
        },
        "top_left_border_color": "000000ff",
        "top_left_border_style": "plain",
        "top_left_border_width": 0,
        "top_right_border_color": "000000ff",
        "top_right_border_style": "plain",
        "top_right_border_width": 0,
        "wType": "Tab"
    },
    "spaip": {
        "background_color": "ffffffff",
        "bg_type": "one",
        "border_type": 0,
        "bottom_left_border_color": "000000ff",
        "bottom_left_border_style": "plain",
        "bottom_left_border_width": 0,
        "bottom_right_border_color": "000000ff",
        "bottom_right_border_style": "plain",
        "bottom_right_border_width": 0,
        "font_color": "ffffffff",
        "font_name": "Arial",
        "font_size": 248,
        "font_style": "normal",
        "font_weight": "normal",
        "isForked": true,
        "shadow": {
            "br": 5,
            "color": "000000",
            "inner": false,
            "nm": 0,
            "x": 0,
            "y": 2
        },
        "top_left_border_color": "000000ff",
        "top_left_border_style": "plain",
        "top_left_border_width": 0,
        "top_right_border_color": "000000ff",
        "top_right_border_style": "plain",
        "top_right_border_width": 0,
        "wType": "Tab"
    },
    "spaipad": {
        "background_color": "ffffffff",
        "bg_type": "one",
        "border_type": 0,
        "bottom_left_border_color": "000000ff",
        "bottom_left_border_style": "plain",
        "bottom_left_border_width": 0,
        "bottom_right_border_color": "000000ff",
        "bottom_right_border_style": "plain",
        "bottom_right_border_width": 0,
        "font_color": "ffffffff",
        "font_name": "Arial",
        "font_size": 248,
        "font_style": "normal",
        "font_weight": "normal",
        "isForked": true,
        "shadow": {
            "br": 5,
            "color": "000000",
            "inner": false,
            "nm": 0,
            "x": 0,
            "y": 2
        },
        "top_left_border_color": "000000ff",
        "top_left_border_style": "plain",
        "top_left_border_width": 0,
        "top_right_border_color": "000000ff",
        "top_right_border_style": "plain",
        "top_right_border_width": 0,
        "wType": "Tab"
    },
    "spawindowstablet": {
        "background_color": "ffffffff",
        "bg_type": "one",
        "border_type": 0,
        "bottom_left_border_color": "000000ff",
        "bottom_left_border_style": "plain",
        "bottom_left_border_width": 0,
        "bottom_right_border_color": "000000ff",
        "bottom_right_border_style": "plain",
        "bottom_right_border_width": 0,
        "font_color": "ffffffff",
        "font_name": "Arial",
        "font_size": 248,
        "font_style": "normal",
        "font_weight": "normal",
        "isForked": true,
        "shadow": {
            "br": 5,
            "color": "000000",
            "inner": false,
            "nm": 0,
            "x": 0,
            "y": 2
        },
        "top_left_border_color": "000000ff",
        "top_left_border_style": "plain",
        "top_left_border_width": 0,
        "top_right_border_color": "000000ff",
        "top_right_border_style": "plain",
        "top_right_border_width": 0,
        "wType": "Tab"
    },
    "spawinphone8": {
        "background_color": "ffffffff",
        "bg_type": "one",
        "border_type": 0,
        "bottom_left_border_color": "000000ff",
        "bottom_left_border_style": "plain",
        "bottom_left_border_width": 0,
        "bottom_right_border_color": "000000ff",
        "bottom_right_border_style": "plain",
        "bottom_right_border_width": 0,
        "font_color": "ffffffff",
        "font_name": "Arial",
        "font_size": 248,
        "font_style": "normal",
        "font_weight": "normal",
        "isForked": true,
        "shadow": {
            "br": 5,
            "color": "000000",
            "inner": false,
            "nm": 0,
            "x": 0,
            "y": 2
        },
        "top_left_border_color": "000000ff",
        "top_left_border_style": "plain",
        "top_left_border_width": 0,
        "top_right_border_color": "000000ff",
        "top_right_border_style": "plain",
        "top_right_border_width": 0,
        "wType": "Tab"
    },
    "tabrcandroid": {
        "background_color": "ffffffff",
        "bg_type": "one",
        "border_color": "000000ff",
        "border_radius": 4,
        "border_style": "custom",
        "border_type": 0,
        "border_width": 1,
        "font_color": "ffffffff",
        "font_name": "Arial",
        "font_size": 248,
        "font_style": "normal",
        "font_weight": "normal",
        "isForked": true,
        "wType": "Tab"
    },
    "wType": "Tab",
    "windows8": {
        "background_color": "ffffffff",
        "bg_type": "one",
        "border_color": "000000ff",
        "border_radius": 4,
        "border_style": "custom",
        "border_type": 0,
        "border_width": 1,
        "font_color": "ffffffff",
        "font_name": "Arial",
        "font_size": 248,
        "font_style": "normal",
        "font_weight": "normal",
        "isForked": true,
        "wType": "Tab"
    },
    "winphone8": {
        "background_color": "ffffffff",
        "bg_type": "one",
        "border_color": "000000ff",
        "border_radius": 4,
        "border_style": "custom",
        "border_type": 0,
        "border_width": 1,
        "font_color": "ffffffff",
        "font_name": "Arial",
        "font_size": 248,
        "font_style": "normal",
        "font_weight": "normal",
        "isForked": true,
        "wType": "Tab"
    }
}