{
  "background_color": "a7a7a7ff",
  "bg_type": "one",
  "border_color": "000000ff",
  "border_style": "plain",
  "border_type": 0,
  "border_width": 0,
  "isDefaultSkin": true,
  "kuid": "s7ab14865214488ab78755fbe0901967",
  "wType": "Segment"
}