{
  "android": {
    "background_color": "ffffff00",
    "bg_type": "one",
    "border_color": "919191ff",
    "border_radius": 4,
    "border_style": "custom",
    "border_type": 0,
    "font_size": 100,
    "isForked": true
  },
  "background_color": "ffffffff",
  "bg_type": "one",
  "border_color": "000000ff",
  "border_style": "plain",
  "border_type": 0,
  "border_width": 1,
  "desktopweb": {
    "background_color": "ffffff00",
    "bg_type": "one",
    "font_size": 100,
    "isForked": true
  },
  "fontSizeInPx": false,
  "font_color": "000000ff",
  "font_name": "Helvetica",
  "font_size": 126,
  "font_style": "normal",
  "font_weight": "normal",
  "ipad": {
    "background_color": "ffffff00",
    "bg_type": "one",
    "border_color": "919191ff",
    "border_radius": 4,
    "border_style": "custom",
    "border_type": 0,
    "font_size": 100,
    "isForked": true
  },
  "iphone": {
    "background_color": "ffffff00",
    "bg_type": "one",
    "border_color": "919191ff",
    "border_radius": 4,
    "border_style": "custom",
    "border_type": 0,
    "font_size": 100,
    "isForked": true
  },
  "isDefaultSkin": false,
  "kiosk": {
    "background_color": "ffffff00",
    "bg_type": "one",
    "border_color": "919191ff",
    "border_radius": 4,
    "border_style": "custom",
    "border_type": 0,
    "font_size": 100,
    "isForked": true
  },
  "kuid": "se2bb8cedfd447ce8e7d6b78b731e222",
  "spaan": {
    "background_color": "ffffff00",
    "bg_type": "one",
    "bottom_left_border_color": "282828ff",
    "bottom_left_border_style": "plain",
    "bottom_left_border_width": 0,
    "bottom_right_border_color": "282828ff",
    "bottom_right_border_style": "plain",
    "bottom_right_border_width": 0,
    "font_size": 100,
    "isForked": true,
    "top_left_border_color": "282828ff",
    "top_left_border_style": "plain",
    "top_left_border_width": 0,
    "top_right_border_color": "282828ff",
    "top_right_border_style": "plain",
    "top_right_border_width": 0
  },
  "spaandroidtablet": {
    "background_color": "ffffff00",
    "bg_type": "one",
    "font_size": 100,
    "isForked": true
  },
  "spabb": {
    "background_color": "ffffff00",
    "bg_type": "one",
    "bottom_left_border_color": "282828ff",
    "bottom_left_border_style": "plain",
    "bottom_left_border_width": 0,
    "bottom_right_border_color": "282828ff",
    "bottom_right_border_style": "plain",
    "bottom_right_border_width": 0,
    "font_size": 100,
    "isForked": true,
    "top_left_border_color": "282828ff",
    "top_left_border_style": "plain",
    "top_left_border_width": 0,
    "top_right_border_color": "282828ff",
    "top_right_border_style": "plain",
    "top_right_border_width": 0
  },
  "spaip": {
    "background_color": "ffffff00",
    "bg_type": "one",
    "bottom_left_border_color": "282828ff",
    "bottom_left_border_style": "plain",
    "bottom_left_border_width": 0,
    "bottom_right_border_color": "282828ff",
    "bottom_right_border_style": "plain",
    "bottom_right_border_width": 0,
    "font_size": 100,
    "isForked": true,
    "top_left_border_color": "282828ff",
    "top_left_border_style": "plain",
    "top_left_border_width": 0,
    "top_right_border_color": "282828ff",
    "top_right_border_style": "plain",
    "top_right_border_width": 0
  },
  "spaipad": {
    "background_color": "ffffff00",
    "bg_type": "one",
    "font_size": 100,
    "isForked": true
  },
  "spawindowstablet": {
    "background_color": "ffffff00",
    "bg_type": "one",
    "font_size": 100,
    "isForked": true
  },
  "spawinphone8": {
    "background_color": "ffffff00",
    "bg_type": "one",
    "bottom_left_border_color": "282828ff",
    "bottom_left_border_style": "plain",
    "bottom_left_border_width": 0,
    "bottom_right_border_color": "282828ff",
    "bottom_right_border_style": "plain",
    "bottom_right_border_width": 0,
    "font_size": 100,
    "isForked": true,
    "top_left_border_color": "282828ff",
    "top_left_border_style": "plain",
    "top_left_border_width": 0,
    "top_right_border_color": "282828ff",
    "top_right_border_style": "plain",
    "top_right_border_width": 0
  },
  "tabrcandroid": {
    "background_color": "ffffff00",
    "bg_type": "one",
    "border_color": "919191ff",
    "border_radius": 4,
    "border_style": "custom",
    "border_type": 0,
    "font_size": 100,
    "isForked": true
  },
  "wType": "TextField",
  "watchos": {
    "font_size": 126,
    "isForked": false
  },
  "windows8": {
    "background_color": "ffffff00",
    "bg_type": "one",
    "border_color": "919191ff",
    "border_radius": 4,
    "border_style": "custom",
    "border_type": 0,
    "font_size": 100,
    "isForked": true
  },
  "winphone8": {
    "background_color": "ffffff00",
    "bg_type": "one",
    "border_color": "919191ff",
    "border_radius": 4,
    "border_style": "custom",
    "border_type": 0,
    "font_size": 100,
    "isForked": true
  }
}