{
    "@class": "com.kony.gen.viz.model.component.KVizLabel",
    "DNDConfig": null,
    "_margin_": [
        4,
        1,
        4,
        1
    ],
    "_padding_": [
        0,
        0,
        0,
        0
    ],
    "_skin_": "s4ed991ad5474aab829dd74126449643",
    "_text_": "Label",
    "_wrapping_": 2,
    "android": {
        "textStyle": {
            "letterSpacing": 0,
            "strikeThrough": false
        }
    },
    "canUpdateUI": true,
    "containerweight": 100,
    "contentalignment": 5,
    "id": "lblEmailListTitle",
    "info": null,
    "ipad": {
        "psp": {
            "wrapping": 2
        }
    },
    "iphone": {
        "psp": {
            "wrapping": 2
        }
    },
    "isvisible": true,
    "kuid": "cd33a97e48394c0383e1d4e72555c45f",
    "margininpixel": false,
    "name": "kony.ui.Label",
    "parent": "hbxHeaderContainer",
    "pf": "PopupChangeEmail",
    "tooltip": "",
    "wType": "Label"
}