{
    "@class": "com.kony.gen.viz.model.component.KVizListBox",
    "DNDConfig": null,
    "_margin_": [
        0,
        0,
        0,
        0
    ],
    "_padding_": [
        0,
        0,
        0,
        0
    ],
    "_skin_": "sacbf6c0cdf4406994a365cbc5a6729f",
    "canUpdateUI": true,
    "containerweight": 100,
    "contentalignment": 4,
    "context": {
        "channel": "mobile",
        "ispercent": true,
        "platform": "android",
        "templateType": "popups",
        "topLevelBox": false
    },
    "groupcells": false,
    "id": "lbxEmailList",
    "info": null,
    "isvisible": true,
    "kuid": "dae049dbd5c64fd6a5986551781fc2f9",
    "margininpixel": false,
    "masterdata": [
        [
            "lb1",
            "Listbox One"
        ],
        [
            "lb2",
            "Listbox Two"
        ],
        [
            "lb3",
            "Listbox Three"
        ]
    ],
    "name": "kony.ui.ListBox",
    "parent": "vbxLbxEmailListContentContainer",
    "pf": "PopupChangeEmail",
    "selectedkey": null,
    "selectedkeys": null,
    "selectedkeyvalue": null,
    "selectedkeyvalues": null,
    "size": 18,
    "viewconfig": {
        "toggleViewConfig": {
            "viewStyle": 0
        }
    },
    "viewtype": 0,
    "wType": "ListBox"
}