{
    "@class": "com.kony.gen.viz.model.component.KVizImage2",
    "DNDConfig": null,
    "__parentReadjusting__": false,
    "_base64_": null,
    "_height_": {
        "type": "string",
        "value": "22dp"
    },
    "_margin_": [
        0,
        0,
        0,
        0
    ],
    "_padding_": [
        0,
        0,
        0,
        0
    ],
    "_skin_": "sf41c054ddd949cc98737e8ad6da5b60",
    "_src_": "imagedrag.png",
    "_width_": {
        "type": "string",
        "value": "22dp"
    },
    "canUpdateUI": true,
    "centerx": {
        "type": "string",
        "value": "50%"
    },
    "centery": {
        "type": "string",
        "value": "80%"
    },
    "containerId": true,
    "containerweight": 100,
    "context": {
        "channel": "mobile",
        "platform": "android",
        "templateType": "segments",
        "topLevelBox": null
    },
    "id": "imgJobTypeIcon",
    "imagescalemode": 1,
    "info": null,
    "isvisible": true,
    "kuid": "c2b7cd05ff0f4a7dadcbbe6a3bbfeac6",
    "name": "kony.ui.Image2",
    "parent": "flxRight",
    "pf": "tplSegHomeContentList",
    "srcType": 1,
    "wType": "Image",
    "widgetalignment": 5
}