{
    "AS_NamedActions_d6165b397cf24f7e9fb3a1b351052e5b": {
        "id": "AS_NamedActions_d6165b397cf24f7e9fb3a1b351052e5b",
        "type": "ACTION_SEQUENCE",
        "name": "ActionPopupMessageOk",
        "language": "js",
        "actions": [{
            "id": "INVOKE_FUNCTION___25adfdb45ed04704902ad88c74641916",
            "type": "INVOKE_FUNCTION",
            "sequenceKUID": "dismissMessagePopup",
            "display": "dismissMessagePopup",
            "inputparams": [],
            "parentId": null,
            "callbackType": null
        }]
    }
}