{
    "AS_TextArea_a73ad3460ce6487489c2a43aa9c1906f": {
        "id": "AS_TextArea_a73ad3460ce6487489c2a43aa9c1906f",
        "type": "ACTION_SEQUENCE",
        "name": "ActionCustomerSRATextAreaEndEditing",
        "params": [{
            "datatype": "collection",
            "name": "eventobject"
        }],
        "contextObj": {
            "name": "Customer",
            "type": "forms",
            "platform": "",
            "KUID": "366f2167c681470e9458506c1b7096bb"
        },
        "language": "js",
        "actions": [{
            "id": "INVOKE_FUNCTION___bd1f0ddfc4df40298a0c5497480ca7ed",
            "type": "INVOKE_FUNCTION",
            "sequenceKUID": "onTextboxEndEditing",
            "display": "onTextboxEndEditing",
            "inputparams": [{
                "name": "widgetRef",
                "value": " eventobject"
            }],
            "parentId": null,
            "callbackType": null
        }]
    }
}