{
    "AS_Segment_cc1feb89d9c44c4eb106328cbcba09c3": {
        "id": "AS_Segment_cc1feb89d9c44c4eb106328cbcba09c3",
        "type": "ACTION_SEQUENCE",
        "name": "ActionSegCompletedJobsRowClick",
        "params": [{
            "datatype": "collection",
            "name": "eventobject"
        }, {
            "datatype": "number",
            "name": "sectionNumber"
        }, {
            "datatype": "number",
            "name": "rowNumber"
        }],
        "language": "js",
        "actions": [{
            "id": "INVOKE_FUNCTION__ide_onRowClick_363feb4d27bb450d9dea5b47a76c6046",
            "type": "INVOKE_FUNCTION",
            "sequenceKUID": "onCompletedJobsSegRowClick",
            "display": "onCompletedJobsSegRowClick",
            "inputparams": [{
                "name": "sectionIndex"
            }, {
                "name": "rowIndex"
            }],
            "callbackType": null
        }]
    }
}