{
    "AS_Form_2a97f627436c43deb579adfcb73c9d04": {
        "id": "AS_Form_2a97f627436c43deb579adfcb73c9d04",
        "type": "ACTION_SEQUENCE",
        "name": "ActionCustomerPostShow",
        "params": [{
            "datatype": "collection",
            "name": "eventobject"
        }],
        "contextObj": {
            "name": "Customer",
            "type": "forms",
            "platform": "",
            "KUID": "366f2167c681470e9458506c1b7096bb"
        },
        "language": "js",
        "actions": [{
            "id": "INVOKE_FUNCTION___b547654d748b4783bc65353c58dba010",
            "type": "INVOKE_FUNCTION",
            "sequenceKUID": "onPostShowCustomerScreen",
            "display": "onPostShowCustomerScreen",
            "inputparams": [],
            "parentId": null,
            "callbackType": null
        }]
    }
}