{
    "AS_Label_ef122fd6446143538ecd820c97ee7f02": {
        "id": "AS_Label_ef122fd6446143538ecd820c97ee7f02",
        "type": "ACTION_SEQUENCE",
        "name": "ActionCustomerEmail",
        "params": [{
            "datatype": "collection",
            "name": "eventobject"
        }, {
            "datatype": "string",
            "name": "x"
        }, {
            "datatype": "string",
            "name": "y"
        }],
        "contextObj": {
            "name": "Customer",
            "type": "forms",
            "platform": "",
            "KUID": "366f2167c681470e9458506c1b7096bb"
        },
        "language": "js",
        "actions": [{
            "id": "INVOKE_FUNCTION___420ad501aa24498696e9d441c8d7f19f",
            "type": "INVOKE_FUNCTION",
            "sequenceKUID": "onClickCustomerEmail",
            "display": "onClickCustomerEmail",
            "inputparams": [],
            "parentId": null,
            "callbackType": null
        }]
    }
}