{
    "AS_NamedActions_a11425c5727a4eda9ebaa3584a764683": {
        "id": "AS_NamedActions_a11425c5727a4eda9ebaa3584a764683",
        "type": "ACTION_SEQUENCE",
        "name": "ActionApplicationWentBackground",
        "language": "js",
        "actions": [{
            "id": "INVOKE_FUNCTION___222bfad1dc76407192bc2976d0ecee00",
            "type": "INVOKE_FUNCTION",
            "sequenceKUID": "onAppWentBackground",
            "display": "onAppWentBackground",
            "inputparams": [],
            "parentId": null,
            "callbackType": null
        }]
    }
}