{
    "AS_Button_e7ac7f2937064c31a93f619eddd2011b": {
        "id": "AS_Button_e7ac7f2937064c31a93f619eddd2011b",
        "type": "ACTION_SEQUENCE",
        "params": [{
            "datatype": "collection",
            "name": "eventobject"
        }],
        "language": "js",
        "actions": [{
            "id": "INVOKE_FUNCTION__ide_onClick_e9b0fa31633a4df888075886bbd88186",
            "type": "INVOKE_FUNCTION",
            "sequenceKUID": "onSelectBtnAction",
            "display": "onSelectBtnAction",
            "inputparams": [],
            "callbackType": null
        }]
    }
}