{
    "AS_Button_3ba86f90592f4e2e9451e6f5e3fa1e59": {
        "id": "AS_Button_3ba86f90592f4e2e9451e6f5e3fa1e59",
        "type": "ACTION_SEQUENCE",
        "params": [{
            "datatype": "collection",
            "name": "eventobject"
        }],
        "language": "js",
        "actions": [{
            "id": "INVOKE_FUNCTION__ide_onClick_ccc73682b86f4f23a3d1e256ddc63bab",
            "type": "INVOKE_FUNCTION",
            "sequenceKUID": "showNearByLocations",
            "display": "showNearByLocations",
            "inputparams": [],
            "callbackType": null
        }]
    }
}