{
    "AS_FlexContainer_90f3241fb0424e96a5ef5ab8352676bf": {
        "id": "AS_FlexContainer_90f3241fb0424e96a5ef5ab8352676bf",
        "type": "ACTION_SEQUENCE",
        "params": [{
            "datatype": "collection",
            "name": "eventobject"
        }],
        "language": "js",
        "actions": [{
            "id": "INVOKE_FUNCTION__ide_onClick_637903cdda8c4e6bb2e9cd7ee9340fbb",
            "type": "INVOKE_FUNCTION",
            "sequenceKUID": "onClickCustomerLoc",
            "display": "onClickCustomerLoc",
            "inputparams": [],
            "callbackType": null
        }]
    }
}