{
    "AS_FlexContainer_63b7ef1d757a44a4949b73d3f183c148": {
        "id": "AS_FlexContainer_63b7ef1d757a44a4949b73d3f183c148",
        "type": "ACTION_SEQUENCE",
        "params": [{
            "datatype": "collection",
            "name": "eventobject"
        }],
        "language": "js",
        "actions": [{
            "id": "INVOKE_FUNCTION__ide_onClick_0689582fa7a246a4bc3be70b481be6cc",
            "type": "INVOKE_FUNCTION",
            "sequenceKUID": "onClickCustomerPhone",
            "display": "onClickCustomerPhone",
            "inputparams": [],
            "callbackType": null
        }]
    }
}