{
    "AS_Segment_388135eeaa5b4c8ea63eb57a45ab5602": {
        "id": "AS_Segment_388135eeaa5b4c8ea63eb57a45ab5602",
        "type": "ACTION_SEQUENCE",
        "params": [{
            "datatype": "collection",
            "name": "eventobject"
        }, {
            "datatype": "number",
            "name": "sectionNumber"
        }, {
            "datatype": "number",
            "name": "rowNumber"
        }],
        "language": "js",
        "actions": [{
            "id": "INVOKE_FUNCTION__ide_onRowClick_5e5c946b92c14df997dd72a29f160421",
            "type": "INVOKE_FUNCTION",
            "sequenceKUID": "onClickBottomSegmentRow",
            "display": "onClickBottomSegmentRow",
            "inputparams": [],
            "callbackType": null
        }]
    }
}