{
    "AS_Segment_a86ad15c3344435f9fc981732db12b4e": {
        "id": "AS_Segment_a86ad15c3344435f9fc981732db12b4e",
        "type": "ACTION_SEQUENCE",
        "params": [{
            "datatype": "collection",
            "name": "eventobject"
        }, {
            "datatype": "number",
            "name": "sectionNumber"
        }, {
            "datatype": "number",
            "name": "rowNumber"
        }],
        "language": "js",
        "actions": [{
            "id": "INVOKE_FUNCTION__ide_onRowClick_6bab464e866c4c57b68df69f9a44e9aa",
            "type": "INVOKE_FUNCTION",
            "sequenceKUID": "onClickTopSegmentRow",
            "display": "onClickTopSegmentRow",
            "inputparams": [],
            "callbackType": null
        }]
    }
}