{
    "AS_CheckBoxGroup_0c9c14e1bf784aaa82d1ee0ed7583c96": {
        "id": "AS_CheckBoxGroup_0c9c14e1bf784aaa82d1ee0ed7583c96",
        "type": "ACTION_SEQUENCE",
        "name": "onChkBxKeyActSelection",
        "params": [{
            "datatype": "collection",
            "name": "eventobject"
        }],
        "contextObj": {
            "name": "Filter",
            "type": "forms",
            "platform": "",
            "KUID": "408a2e02807044099e07a55658bcbf57"
        },
        "language": "js",
        "actions": [{
            "id": "INVOKE_FUNCTION___c8033b92543f4b2897f1308faaca8308",
            "type": "INVOKE_FUNCTION",
            "sequenceKUID": "onSelectChkBxKeyAccnt",
            "display": "onSelectChkBxKeyAccnt",
            "inputparams": [],
            "parentId": null,
            "callbackType": null
        }]
    }
}