{
    "AS_Form_820ec2aa538140ebac9a7f68f5fd041d": {
        "id": "AS_Form_820ec2aa538140ebac9a7f68f5fd041d",
        "type": "ACTION_SEQUENCE",
        "name": "onFilterPostShowAction",
        "params": [{
            "datatype": "collection",
            "name": "eventobject"
        }],
        "contextObj": {
            "name": "Filter",
            "type": "forms",
            "platform": "",
            "KUID": "408a2e02807044099e07a55658bcbf57"
        },
        "language": "js",
        "actions": [{
            "id": "INVOKE_FUNCTION___3be7d9a200144a03ab08a34d5333fb84",
            "type": "INVOKE_FUNCTION",
            "sequenceKUID": "onFilterPagePostShow",
            "display": "onFilterPagePostShow",
            "inputparams": [],
            "parentId": null,
            "callbackType": null
        }]
    }
}