{
    "DNDConfig": null,
    "_height_": {
        "type": "string",
        "value": "45dp"
    },
    "_margin_": [
        0,
        0,
        0,
        0
    ],
    "_orientation_": 6,
    "_padding_": [
        0,
        0,
        0,
        0
    ],
    "_percent_": true,
    "_skin_": "s18906e36ee14c9aabc1d20002fc503f",
    "allboxes": [],
    "autogrowmode": 0,
    "canUpdateUI": true,
    "children": [
        "imgBtnIcon",
        "lblItem"
    ],
    "clipbounds": true,
    "containerId": true,
    "containerweight": 100,
    "enablescrolling": true,
    "id": "flxRowSegMenuListTop",
    "info": null,
    "isTemplate": true,
    "isvisible": true,
    "kuid": "696a5885b6c64af7ba3489abca8632c0",
    "layouttype": 2,
    "name": "kony.ui.FlexContainer",
    "parent": "tplSegMenuListTop",
    "pf": "tplSegMenuListTop",
    "snapgridsize": 10,
    "snaptogrid": true,
    "wType": "FlexContainer",
    "widgetalignment": 1
}