{
    "DNDConfig": null,
    "__parentReadjusting__": false,
    "_height_": {
        "type": "string",
        "value": "230dp"
    },
    "_left_": {
        "type": "string",
        "value": "0dp"
    },
    "_margin_": [
        0,
        0,
        0,
        0
    ],
    "_orientation_": 6,
    "_padding_": [
        0,
        0,
        0,
        0
    ],
    "_percent_": true,
    "_skin_": "s61dd284e01449d481824fe62af43292",
    "_top_": {
        "type": "string",
        "value": "0dp"
    },
    "_width_": {
        "type": "string",
        "value": "100%"
    },
    "allboxes": [],
    "autogrowmode": 0,
    "canUpdateUI": true,
    "children": [
        "lblPreprationHead",
        "lblQuatity",
        "PreprationsCmb1",
        "PreprationsCmb2",
        "PreprationsCmb3",
        "PreprationsCmb4",
        "PreprationsCmb5",
        "quatityCmb1",
        "quatityCmb2",
        "quatityCmb3",
        "quatityCmb4",
        "quatityCmb5"
    ],
    "clipbounds": true,
    "containerweight": 100,
    "enablescrolling": true,
    "id": "flxPreparationsContainer",
    "info": null,
    "isvisible": true,
    "kuid": "50417b870e93444487ba19e171c058e4",
    "layouttype": 2,
    "name": "kony.ui.FlexContainer",
    "parent": "TabPreparations",
    "pf": "Visit",
    "snapgridsize": 10,
    "snaptogrid": true,
    "tabpaneId": "TabPaneVisits",
    "wType": "FlexContainer",
    "widgetalignment": 1,
    "zindex": 1
}