{
    "@class": "com.kony.gen.viz.model.component.KVizImage2",
    "DNDConfig": null,
    "_base64_": null,
    "_margin_": [
        0,
        0,
        0,
        0
    ],
    "_padding_": [
        0,
        0,
        0,
        0
    ],
    "_skin_": "sf41c054ddd949cc98737e8ad6da5b60",
    "_src_": "imagedrag.png",
    "canUpdateUI": true,
    "containerweight": 100,
    "context": {
        "channel": "mobile",
        "formID": "PopupShowImage",
        "ispercent": true,
        "templateType": "popups",
        "topLevelBox": null
    },
    "id": "imgPhoto",
    "imagescalemode": 1,
    "info": null,
    "ispercent": true,
    "isvisible": true,
    "kuid": "614e073727ce4fd5b42cc6d051aa98bc",
    "name": "kony.ui.Image2",
    "parent": "hbxImageContainer",
    "pf": "PopupShowImage",
    "srcType": 1,
    "wType": "Image",
    "widgetalignment": 5
}