{
    "@class": "com.kony.gen.viz.model.component.KVizButton",
    "DNDConfig": null,
    "__parentReadjusting__": false,
    "_bottom_": {
        "type": "string",
        "value": "10dp"
    },
    "_height_": {
        "type": "string",
        "value": "35dp"
    },
    "_margin_": [
        6,
        6,
        6,
        6
    ],
    "_padding_": [
        0,
        0,
        0,
        0
    ],
    "_right_": {
        "type": "string",
        "value": "10dp"
    },
    "_skin_": "se11e4f4a0994d1a8992680a848392f1",
    "_text_": "",
    "_width_": {
        "type": "string",
        "value": "35dp"
    },
    "canUpdateUI": true,
    "containerweight": 100,
    "contentalignment": 5,
    "displaytext": false,
    "focusskin": "se11e4f4a0994d1a8992680a848392f1",
    "id": "btnEditAndDone",
    "ide_onClick": "AS_Button_84a1645ccffc496b858461022eddaca2",
    "info": null,
    "isvisible": true,
    "kuid": "5679fd77a3c1416180bfe710a0246825",
    "name": "kony.ui.Button",
    "parent": "FlxRiskAsst",
    "pf": "Customer",
    "tabpaneId": "tabCustomerDetails",
    "wType": "Button",
    "zindex": 1
}