{
    "DNDConfig": null,
    "__parentReadjusting__": false,
    "_height_": {
        "type": "string",
        "value": "40dp"
    },
    "_left_": {
        "type": "string",
        "value": "0dp"
    },
    "_margin_": [
        0,
        0,
        0,
        0
    ],
    "_orientation_": 6,
    "_padding_": [
        0,
        0,
        0,
        0
    ],
    "_percent_": true,
    "_skin_": "s18906e36ee14c9aabc1d20002fc503f",
    "_width_": {
        "type": "string",
        "value": "12%"
    },
    "allboxes": [],
    "autogrowmode": 0,
    "canUpdateUI": true,
    "centery": {
        "type": "string",
        "value": "50%"
    },
    "children": [
        "imgEmailIcon"
    ],
    "clipbounds": true,
    "containerweight": 100,
    "enablescrolling": true,
    "id": "flxEmailLeftContainer",
    "info": null,
    "isvisible": true,
    "kuid": "9e0f7342bcf442f0a01ff5a87fa9be04",
    "layouttype": 2,
    "name": "kony.ui.FlexContainer",
    "parent": "flxEmailContainer",
    "pf": "Customer",
    "snapgridsize": 10,
    "snaptogrid": true,
    "tabpaneId": "tabCustomerDetails",
    "wType": "FlexContainer",
    "widgetalignment": 1,
    "zindex": 1
}