{
    "@class": "com.kony.gen.viz.model.component.KVizImage2",
    "DNDConfig": null,
    "__parentReadjusting__": false,
    "_base64_": null,
    "_bottom_": {
        "type": "string",
        "value": "10dp"
    },
    "_height_": {
        "type": "string",
        "value": "35dp"
    },
    "_margin_": [
        0,
        0,
        0,
        0
    ],
    "_padding_": [
        0,
        0,
        0,
        0
    ],
    "_right_": {
        "type": "string",
        "value": "10dp"
    },
    "_skin_": "sf41c054ddd949cc98737e8ad6da5b60",
    "_src_": "edit.png",
    "_width_": {
        "type": "string",
        "value": "35dp"
    },
    "canUpdateUI": true,
    "containerweight": 100,
    "context": {
        "channel": "mobile",
        "formID": "Customer",
        "platform": "android",
        "tabpaneID": "",
        "templateType": "forms",
        "topLevelBox": null
    },
    "id": "imgEditAndDone",
    "ide_onTouchStart": "AS_Image_b20b32c771674b5db53722bfff53e24f",
    "imagescalemode": 1,
    "info": null,
    "invokedProperty": "src",
    "isvisible": true,
    "kuid": "862de25f15694b68977986931eca3c3e",
    "name": "kony.ui.Image2",
    "parent": "FlxRiskAsst",
    "pf": "Customer",
    "srcType": 1,
    "tabpaneId": "tabCustomerDetails",
    "wType": "Image",
    "widgetalignment": 5,
    "zindex": 1
}