{
    "DNDConfig": null,
    "_enabled_": false,
    "_height_": {
        "type": "string",
        "value": "290dp"
    },
    "_image_": null,
    "_margin_": [
        0,
        0,
        0,
        0
    ],
    "_orientation_": 6,
    "_padding_": [
        0,
        0,
        0,
        0
    ],
    "_percent_": true,
    "_position_": 3,
    "_render_": true,
    "_skin_": "sa3f141ae98643aab1997a245a9e348f",
    "_width_": {
        "type": "string",
        "value": "100%"
    },
    "allboxes": [],
    "canUpdateUI": true,
    "children": [
        "flxServiceCovers"
    ],
    "clipbounds": true,
    "containerweight": 93,
    "enableScrolling": true,
    "enabled": false,
    "enablescrolling": true,
    "id": "tabServiceCovers",
    "info": null,
    "isvisible": true,
    "kuid": "8b9edf33e902424a8d96b433c7bfafa1",
    "layouttype": 2,
    "marginLocked": false,
    "margininpixel": false,
    "name": "kony.ui.Tab",
    "oninit": null,
    "paddinginpixel": false,
    "parent": "tabCustomerDetails",
    "pf": "Customer",
    "scrollDirection": 1,
    "scrolldirection": 1,
    "snapgridsize": "10",
    "snaptogrid": true,
    "tabname": "  Service Covers",
    "tabpaneId": "tabCustomerDetails",
    "wType": "Tab"
}