{
    "@class": "com.kony.gen.viz.model.component.KVizButton",
    "DNDConfig": null,
    "__parentReadjusting__": false,
    "_height_": {
        "type": "string",
        "value": "40dp"
    },
    "_left_": {
        "type": "string",
        "value": "7dp"
    },
    "_margin_": [
        6,
        6,
        6,
        6
    ],
    "_padding_": [
        0,
        0,
        0,
        0
    ],
    "_skin_": "se11e4f4a0994d1a8992680a848392f1",
    "_text_": "Button",
    "_width_": {
        "type": "string",
        "value": "40dp"
    },
    "canUpdateUI": true,
    "centery": {
        "type": "string",
        "value": "50%"
    },
    "containerweight": 100,
    "contentalignment": 5,
    "displaytext": false,
    "focusskin": "se11e4f4a0994d1a8992680a848392f1",
    "id": "btnBurgerMenu",
    "ide_onClick": "AS_NamedActions_0ee594e17b72488ba950418f5daec2ad",
    "info": null,
    "isvisible": true,
    "kuid": "036417e01604444e8c3181387c4c9cd2",
    "name": "kony.ui.Button",
    "parent": "flxHeaderContainer",
    "pf": "Home",
    "wType": "Button",
    "zindex": 1
}