{
    "@class": "com.kony.gen.viz.model.component.KVizButton",
    "DNDConfig": null,
    "__parentReadjusting__": false,
    "_height_": {
        "type": "string",
        "value": "50dp"
    },
    "_margin_": [
        6,
        6,
        6,
        6
    ],
    "_padding_": [
        0,
        1,
        0,
        0
    ],
    "_right_": {
        "type": "string",
        "value": "59dp"
    },
    "_skin_": "sf6f4a11387a45578a3f9ced63882086",
    "_text_": "17",
    "_width_": {
        "type": "string",
        "value": "50dp"
    },
    "canUpdateUI": true,
    "centery": {
        "type": "string",
        "value": "50%"
    },
    "containerweight": 100,
    "contentalignment": 5,
    "displaytext": true,
    "focusskin": "sf6f4a11387a45578a3f9ced63882086",
    "id": "btnCalendar",
    "ide_onClick": "AS_Button_1135915f8f9a4d5fb8d9448ee518b935",
    "info": null,
    "isvisible": true,
    "kuid": "b5b97d5bde844e4bbe1e09f68c7a7efb",
    "name": "kony.ui.Button",
    "paddinginpixel": false,
    "parent": "flxHeaderContainer",
    "pf": "Home",
    "wType": "Button",
    "zindex": 1
}