{
    "@class": "com.kony.gen.viz.model.component.KVizButton",
    "DNDConfig": null,
    "__parentReadjusting__": false,
    "_bottom_": {
        "type": "string",
        "value": "0dp"
    },
    "_left_": {
        "type": "string",
        "value": "0%"
    },
    "_margin_": [
        6,
        6,
        6,
        6
    ],
    "_padding_": [
        0,
        0,
        0,
        0
    ],
    "_skin_": "se3df46aeac44f2aa4cc4bc3a7c0eee6",
    "_text_": "Schedule",
    "_top_": {
        "type": "string",
        "value": "0dp"
    },
    "_width_": {
        "type": "string",
        "value": "49.80%"
    },
    "canUpdateUI": true,
    "containerweight": 100,
    "contentalignment": 5,
    "displaytext": true,
    "focusskin": "se11e4f4a0994d1a8992680a848392f1",
    "id": "btnSchedule",
    "ide_onClick": "AS_Button_c4bd39d43e194ea4815246c8e9f4a814",
    "info": null,
    "isvisible": true,
    "kuid": "5b7bc17a4cd346fa9111ecdc1647e003",
    "name": "kony.ui.Button",
    "parent": "flxMenuContainer",
    "pf": "Home",
    "wType": "Button"
}