{
    "@class": "com.kony.gen.viz.model.component.KVizMap",
    "DNDConfig": null,
    "__parentReadjusting__": false,
    "_bottom_": {
        "type": "string",
        "value": "0%"
    },
    "_left_": {
        "type": "string",
        "value": "0dp"
    },
    "_margin_": [
        0,
        0,
        0,
        0
    ],
    "_mode_": 1,
    "_padding_": [
        0,
        0,
        0,
        0
    ],
    "_top_": {
        "type": "string",
        "value": "0%"
    },
    "_width_": {
        "type": "string",
        "value": "100%"
    },
    "calloutTemplateId": "afc6697ce4a1436cab8b58fb705f0ea1",
    "callouttemplate": "flxMapCallouts",
    "calloutwidth": 80,
    "canUpdateUI": true,
    "containerweight": 100,
    "defaultpinimage": "pinb.png",
    "id": "mapLocation",
    "ide_onPinClick": "AS_Map_7f62b3251817427cb08c7e256dd96d52",
    "ide_onSelection": "AS_Map_a1c68f4a52b84d1d8880d5ec7112cd6c",
    "info": null,
    "invokedProperty": "maps",
    "isvisible": true,
    "kuid": "82cbe353c0734464a81f78d6e39ca66e",
    "locationdata": [],
    "mapsource": "non-native",
    "mapsrc": "non-native",
    "name": "kony.ui.Map",
    "parent": "flxMapContainer",
    "pf": "Home",
    "provider": "google",
    "screenlevelwidget": false,
    "wType": "Map",
    "zoomlevel": 1
}