{
    "@class": "com.kony.gen.viz.model.container.KVizSegment2",
    "DNDConfig": null,
    "__parentReadjusting__": false,
    "_bottom_": {
        "type": "string",
        "value": "0dp"
    },
    "_data_": [
        {
            "imgJobTypeIcon": {
                "@class": "com.viz.ide.model.segment.ImageSegmentData",
                "src": ""
            },
            "imgLeftArrowIcon": {
                "@class": "com.viz.ide.model.segment.ImageSegmentData",
                "src": ""
            },
            "lblItemBottom": {
                "@class": "com.viz.ide.model.segment.SimpleTextSegmentData",
                "text": ""
            },
            "lblItemMiddle": {
                "@class": "com.viz.ide.model.segment.SimpleTextSegmentData",
                "text": ""
            },
            "lblItemTop": {
                "@class": "com.viz.ide.model.segment.SimpleTextSegmentData",
                "text": ""
            },
            "sectionIndex": {
                "text": ""
            }
        }
    ],
    "_indicator_": "none",
    "_left_": {
        "type": "string",
        "value": "0dp"
    },
    "_margin_": [
        0,
        0,
        0,
        0
    ],
    "_orientation_": 2,
    "_padding_": [
        0,
        0,
        0,
        0
    ],
    "_top_": {
        "type": "string",
        "value": "40dp"
    },
    "_width_": {
        "type": "string",
        "value": "100%"
    },
    "autogrowmode": 0,
    "canUpdateUI": true,
    "containerweight": 100,
    "counter": "00",
    "disabledSkins": {
        "rowFocusSkin": "s4e48988fb7349c8bf3059a59b48404a",
        "rowSkin": "sffbf40840a24da6aece9eb3cbe0dfa7"
    },
    "focusedindex": null,
    "focuseditem": null,
    "groupcells": false,
    "hasSections": false,
    "hiddencolumns": {
        "sectionIndex": "text",
        "visitStatus": "text",
        "workorderId": "text"
    },
    "id": "segHomeCompletedList",
    "ide_onRowClick": "AS_Segment_cc1feb89d9c44c4eb106328cbcba09c3",
    "info": null,
    "ipad": {
        "psp": {
            "indicator": "rowselect"
        }
    },
    "iphone": {
        "psp": {
            "indicator": "rowselect"
        }
    },
    "isvisible": true,
    "kuid": "9733c76608d04889a9f7fa7c4ef13c64",
    "masterdata": {},
    "name": "kony.ui.SegmentedUI2",
    "needpageindicator": true,
    "pageoffdotimage": "pageoffdot.png",
    "pageondotimage": "pageondot.png",
    "paginationconfig": {
        "position": "bottom"
    },
    "parent": "flxCompletedList",
    "pf": "Home",
    "retainselection": false,
    "rowTemplateId": "af4ebcb9d2dd4a1ea0e92e84d575e82d",
    "rowcounter": 0,
    "rowtemplate": "flxRowSegHomeContentList",
    "screenlevelwidget": false,
    "seccounter": 0,
    "sectionHeaderTemplateId": null,
    "sectionheaderskin": "s7ab14865214488ab78755fbe0901967",
    "selectedRows": null,
    "selectedState": false,
    "selectedindex": null,
    "selectedindices": null,
    "selecteditems": null,
    "selectedsectionindex": 0,
    "selectionbehavior": "default",
    "separatorcolor": "64646400",
    "separatorrequired": true,
    "separatorthickness": 1,
    "showscrollbars": false,
    "viewtype": "tableview",
    "wType": "Segment",
    "widgetalignment": 5,
    "widgetdatamap": {
        "flxLeft": "flxLeft",
        "flxRight": "flxRight",
        "flxRowSegHomeContentList": "flxRowSegHomeContentList",
        "imgJobTypeIcon": "imgJobTypeIcon",
        "imgLeftArrowIcon": "imgLeftArrowIcon",
        "lblItemBottom": "lblItemBottom",
        "lblItemMiddle": "lblItemMiddle",
        "lblItemTop": "lblItemTop"
    }
}