{
    "DNDConfig": null,
    "_height_": {
        "type": "string",
        "value": "45dp"
    },
    "_margin_": [
        0,
        0,
        0,
        0
    ],
    "_orientation_": 6,
    "_padding_": [
        0,
        0,
        0,
        0
    ],
    "_percent_": true,
    "_skin_": "s18906e36ee14c9aabc1d20002fc503f",
    "allboxes": [],
    "autogrowmode": 0,
    "canUpdateUI": true,
    "children": [
        "imgBtnIcon",
        "lblItem"
    ],
    "clipbounds": true,
    "containerId": true,
    "containerweight": 100,
    "enablescrolling": true,
    "id": "flxRowSegMenuList",
    "info": null,
    "isTemplate": true,
    "isvisible": true,
    "kuid": "225716ae55f84e3097de3ebe554bebfe",
    "layouttype": 2,
    "name": "kony.ui.FlexContainer",
    "parent": "tplSegMenuList",
    "pf": "tplSegMenuList",
    "snapgridsize": 10,
    "snaptogrid": true,
    "wType": "FlexContainer",
    "widgetalignment": 1
}